{
    "type": "service_account",
    "project_id": "project-lite-analytics",
    "private_key_id": "101f631862f49ac6ea89f313591bd577a18bbe50",
    "private_key": "-----BEGIN PRIVATE KEY-----\nMIIEvgIBADANBgkqhkiG9w0BAQEFAASCBKgwggSkAgEAAoIBAQDMtF6c/7k+IupP\n7WkjLPlRA96X6z2DuAldioPrvtowqPjygisISnFLRr5KigtkJNwNK0LED9LtduF6\nz9oMNGk/b1d9fvNPwzv9DG8lRCya37RtmXcGDCic0TReR7IG/MzLFzO3sgnU0FaN\nudgnkqq9EZ2+oD1/JYNQU99svimnxNrDJLQu9rmdsZbmlVaLSZv4UEHOxexerc2w\nhH7LSlrRuis0Tpnoy6thlJbJNmcEfzeVRB8OwpJL/9j462kAZ3HGlxdG+VfGBDH0\ncQEwBACXhW0XXHCW0dZTM73/XVGE0O7scKm9hoCj/+tFNcCdTJyDSotk1+SFJVfd\nnihfxxbpAgMBAAECggEAGVMUJGinlmYT5kz49ZLWCj2ID3PZEZ9WO0YMYYEkNaJl\n3/yWDcnF39nx5z9SPvKnbZKlSSOrBNkw9nRZ5aojPieMY5htyfedh4X/BxV6zjMw\nO2HhvXQKHzJrf+FvRxmFzXdCnO5v9G3M025DLUwiBs9z3DYvPXha2ThzGt0gwqIp\nhAIONFsbOqYoiNMomi0gKFcw//ZyvnAr7GF2s16qVchfSDLEg7G8b8XUbSo5d57L\n9B2x9YlCJ3gjZMabQA8utsE/E3CCDv3weFD6SIDU/UdROlh+r28nWMlxJ6vGJeob\n27Qp3fdSd0W+Q3ZqJGJdia9gNvqExTf/rHKdyFe/LQKBgQDrBoF7fZWnQf1WwZee\nvMQ1BL0+UenlciQF2idV/A6OhC64JMldxQVPj2LTLvnA8gnk3QQmsev9AaNcIIfu\n7dpcR2SR5vOSqSLx5WNSc7ji7GWJ76yapf0ScrxZ2h9ZQYFihiM8N1/tCDDaBI52\n6nCFYEbQEJ0PjvgP1UwVZdfAhQKBgQDe+SPx5bJTm3L61KKchgKsF+HQOqwvT8e+\nFEECCn7lUdMPE7fjzYE4v8kqn4NVHIvFOm2Dq8KhO/xMsk84iKyeVfhLbfnVtJCg\nF9lB6fBez7/cSEnjSIbwuwiGuWCMwL+/nqeeadSAD5Y3SSQ1wffOu/0s3lKJYUkg\nM+JzP7rcFQKBgQCFxxY87KcapX1GvLtJJ7mnVCNELewtJmNK0XpCf07p4GOXfZkB\nPvxe5QcjnkGbiioHk6ahP/VL9nq+HeZCIjGBBUJBqmxKtuulNSTr8eLziAvkEAD3\npjP/JEACBR6C975mDmRQClUX3umvr5hIJ/oUcVDdbhd4m7CnkonURDwi4QKBgGbg\nkOMlVfgZex2cSkLp2gXJJxlKWPOjXcen1K66ZP4tmLIWKPxkb0DdzFVsL85vU1X2\ntVzRPQXjhW9lvgOZm/uaMuuqnGEr5KbZGha9d3hnZmCeweiqKAieYzq2AYQv0sj4\nzOHcdn13s5lil+Bt1IaAWjn/ghl8156SEeOW/gJZAoGBAMdDTXbPh6/R/bZIq/qU\no7NTJQabD8A7ladNidzACQocMB2F9U8q3EGQ3aiH1Cp70qsuONzCBGUoFP5EebfR\nntoOmW4VuO3NzPstb80vRwnzBFVHYGByGp+h02PGrW95JbdiI7lCvyDZ7T74kdBw\n1KVWXzMQPaxhZ+FEqRkxXpsR\n-----END PRIVATE KEY-----\n",
    "client_email": "darkdata-analytics@project-lite-analytics.iam.gserviceaccount.com",
    "client_id": "112996030465904523242",
    "auth_uri": "https://accounts.google.com/o/oauth2/auth",
    "token_uri": "https://oauth2.googleapis.com/token",
    "auth_provider_x509_cert_url": "https://www.googleapis.com/oauth2/v1/certs",
    "client_x509_cert_url": "https://www.googleapis.com/robot/v1/metadata/x509/darkdata-analytics%40project-lite-analytics.iam.gserviceaccount.com"
}